<svg id="e478e32db06016263b67cc03b751558e" xmlns="http://www.w3.org/2000/svg" width="19.014" height="18.404" viewBox="0 0 19.014 18.404">
  <g id="Group_36" data-name="Group 36">
    <path id="Path_288" data-name="Path 288" d="M28.684,34.616l-1.671-.9V29.03a.637.637,0,0,0-.336-.563L21.941,25.9a.644.644,0,0,0-.611,0L16.6,28.465a.643.643,0,0,0-.336.563v.761l-.576-.312a.644.644,0,0,0-.611,0l-4.736,2.567a.639.639,0,0,0-.336.563v5.842a.637.637,0,0,0,.336.563l4.736,2.565a.63.63,0,0,0,.3.078.652.652,0,0,0,.3-.078l2.581-1.4v.844a.64.64,0,0,0,.338.565l4.734,2.565a.637.637,0,0,0,.609,0l4.734-2.565a.644.644,0,0,0,.336-.565v-5.84A.627.627,0,0,0,28.684,34.616Zm-5.468-2.5-.937.508v-.648l.854-.464v.295A.628.628,0,0,0,23.216,32.119Zm.427,1.226,3.388,1.836-1.188.642-3.186-1.946Zm2.09-.328-1.471-.8a.636.636,0,0,0,.155-.413v-.988l1.316-.712v2.909Zm-4.1-5.823,3.39,1.836-1.188.642-3.186-1.946Zm-2.29,1.24,3.19,1.946-.9.487-3.39-1.838Zm-3.97,2.336.881.479,2.507,1.356-1.186.642-1.321-.805L14.391,31.3Zm0,3.673-3.39-1.838,1.1-.6,3.171,1.935.017.01-.017.01Zm.64,5.493V35.554l.427-.231.429-.231v.295a.6.6,0,0,0,.043.223.637.637,0,0,0,.6.415.81.81,0,0,0,.14-.016.643.643,0,0,0,.5-.625V34.4l1.316-.712v.462l-.871.473a.64.64,0,0,0-.336.565v3.539Zm7.624-2.92-3.39-1.836,1.1-.6,3.188,1.946Zm4.092,3.625-3.454,1.871V38.128l.856-.464v.295a.64.64,0,1,0,1.281,0v-.988l1.316-.712v4.381Z" transform="translate(-10 -25.825)" fill="#bebebe"/>
  </g>
</svg>
