<svg xmlns="http://www.w3.org/2000/svg" width="44.56" height="41.69" viewBox="0 0 44.56 41.69">
  <g id="e5d20fa3a89d5de3f8d6f2e7eebdc259" transform="translate(-10 -40.24)">
    <g id="Group_225" data-name="Group 225" transform="translate(10 40.24)">
      <path id="Path_872" data-name="Path 872" d="M430.9-430.83v8.94l-.819-.819-.819-.819-.518.527-.527.518,1.455,1.455a16.8,16.8,0,0,0,1.7,1.555.56.56,0,0,0,.509,0,16.785,16.785,0,0,0,1.7-1.555l1.455-1.455-.527-.518-.518-.527-.819.819-.819.819v-17.87H430.9Z" transform="translate(-409.35 439.76)" fill="#4d4f5c"/>
      <path id="Path_873" data-name="Path 873" d="M18.921-375.549c-9.417,3.667-8.7,3.364-8.834,3.684a.488.488,0,0,0-.009.476c.052.121,1.114,1.522,2.359,3.114S14.7-365.352,14.7-365.3s-1.062,2.188-2.35,4.756-2.35,4.731-2.35,4.8a.828.828,0,0,0,.6.718c.218.1,3.916,1.539,8.225,3.217,5.44,2.11,7.885,3.027,8.025,2.993a.822.822,0,0,0,.322-.173c.07-.069,1.079-1.669,2.245-3.555l2.123-3.434.026,7.2c.009,3.961,0,7.221-.026,7.247s-3.464-1.237-7.659-2.793l-7.615-2.845v-3.684H14.874v2.119a13.557,13.557,0,0,0,.1,2.327,1.019,1.019,0,0,0,.5.38c.218.1,4.09,1.539,8.607,3.226l8.2,3.053,8.207-3.053c4.508-1.686,8.381-3.131,8.6-3.226a1.021,1.021,0,0,0,.5-.38,13.586,13.586,0,0,0,.1-2.327v-2.119H48.294v3.684l-7.615,2.845c-4.2,1.557-7.641,2.819-7.659,2.793s-.035-3.278-.026-7.239l.026-7.2,2.123,3.434c1.175,1.885,2.184,3.485,2.254,3.546a.737.737,0,0,0,.313.173c.139.035,2.611-.891,8.024-2.992,4.3-1.678,8.007-3.122,8.225-3.217a.828.828,0,0,0,.6-.718c0-.069-1.053-2.231-2.35-4.8s-2.349-4.713-2.349-4.757,1.018-1.392,2.263-2.984,2.306-2.993,2.367-3.1a.515.515,0,0,0-.017-.476c-.131-.32.627,0-8.956-3.728-7.424-2.889-7.754-3-8.085-2.785-.061.043-.748,1.185-1.532,2.551l-1.427,2.473.592.346.6.337,1.236-2.153c.679-1.185,1.245-2.154,1.262-2.154.052,0,14.517,5.63,14.552,5.656.052.06-3.934,5.068-4.03,5.068-.061,0-3.072-1.029-6.693-2.292s-6.623-2.292-6.658-2.292a4.456,4.456,0,0,0-.427,1.254c.017.017,2.741.977,6.057,2.128s6,2.119,5.962,2.153c-.1.1-14.526,6.054-14.648,6.054-.052,0-3.255-1.306-7.119-2.906s-7.154-2.958-7.319-3.027-.279-.138-.252-.164,2.733-.977,6.04-2.128,6.014-2.093,6.022-2.11a4.741,4.741,0,0,0-.427-1.254c-.035,0-3.029,1.029-6.658,2.292s-6.632,2.292-6.693,2.292c-.1,0-4.082-5.007-4.03-5.068.017-.009,3.3-1.3,7.285-2.845,5.605-2.179,7.276-2.793,7.328-2.707.044.061.609,1.038,1.253,2.162l1.184,2.049.592-.346.6-.346-1.445-2.491c-1.393-2.413-1.593-2.7-1.958-2.69C26.623-378.533,23.133-377.184,18.921-375.549Zm5.118,14.408c4.917,2.032,7.189,3.01,7.154,3.087-.052.138-4.647,7.559-4.734,7.654-.052.052-10.714-4.03-14.691-5.621a37.74,37.74,0,0,1,2.019-4.272l2.132-4.229.452.2C16.623-364.211,20.07-362.784,24.038-361.141Zm26.736.848a37.893,37.893,0,0,1,2.019,4.272c-.061.026-3.377,1.314-7.372,2.871-6.815,2.646-7.267,2.811-7.38,2.664-.174-.242-4.63-7.446-4.674-7.567-.035-.078,2.272-1.072,7.589-3.286,4.2-1.738,7.65-3.174,7.659-3.174S49.6-362.62,50.775-360.293Z" transform="translate(-10 381.443)" fill="#4d4f5c"/>
    </g>
  </g>
</svg>
