<svg xmlns="http://www.w3.org/2000/svg" width="34.2" height="34.214" viewBox="0 0 34.2 34.214">
  <g id="Group_804" data-name="Group 804" transform="translate(-1719.097 -35.123)">
    <g id="Group_680" data-name="Group 680" transform="translate(1725.044 45.437)">
      <path id="Path_1487" data-name="Path 1487" d="M577.735,1828.622l-9.347-7.184H587.1Z" transform="translate(-566.936 -1821.438)" fill="#29017c"/>
      <path id="Path_1488" data-name="Path 1488" d="M575.476,1827.485l-7.562,6.179v-11.972Z" transform="translate(-567.914 -1820.915)" fill="#29017c"/>
      <path id="Path_1489" data-name="Path 1489" d="M575.777,1823.934l2.01,1.582,2.122-1.645,7.369,6.143H568.363Z" transform="translate(-566.987 -1816.421)" fill="#29017c"/>
      <path id="Path_1490" data-name="Path 1490" d="M572.529,1827.419l7.49-5.727v11.957Z" transform="translate(-558.395 -1820.915)" fill="#29017c"/>
    </g>
    <g id="Group_691" data-name="Group 691" transform="translate(1719.097 35.123)">
      <path id="Path_1500" data-name="Path 1500" d="M597.453,1827.9a17.1,17.1,0,1,0-6.208,19.133A17.091,17.091,0,0,0,597.453,1827.9Zm-7.116,17.88a15.565,15.565,0,1,1,5.655-17.4A15.538,15.538,0,0,1,590.337,1845.781Z" transform="translate(-564.092 -1816.081)" fill="#29017c" fill-rule="evenodd"/>
    </g>
  </g>
</svg>
