<svg xmlns="http://www.w3.org/2000/svg" width="65" height="41.682" viewBox="0 0 65 41.682">
  <g id="Group_121" data-name="Group 121" transform="translate(-717 -416.318)">
    <text id="operation" transform="translate(717 454)" fill="#29017c" font-size="15" font-family="SegoeUI, Segoe UI"><tspan x="0" y="0">operation</tspan></text>
    <g id="Group_117" data-name="Group 117" transform="translate(727.485 416.318)">
      <g id="Group_37" data-name="Group 37" transform="translate(0 0)">
        <path id="Path_277" data-name="Path 277" d="M12.869-271.7a4.5,4.5,0,0,0-2.56,2.217c-.249.526-.261.686-.3,5.794-.024,2.891,0,5.428.035,5.646a2.55,2.55,0,0,0,.735,1.063l.664.663H39.391v-6.1c0-5.874-.012-6.125-.249-6.88a2.981,2.981,0,0,0-.984-1.486c-1.2-1.154-.214-1.074-13.4-1.063C15.739-271.849,13.26-271.815,12.869-271.7Zm23.688,1.931a2.315,2.315,0,0,1,.676.766c.261.5.261.537.261,5.68v5.178H24.82c-10.659,0-12.686-.023-12.8-.16a35.949,35.949,0,0,1-.107-5.3l.035-5.142.355-.435a3.206,3.206,0,0,1,.77-.628c.391-.206.937-.217,11.749-.217H36.153Z" transform="translate(-10.003 271.854)" fill="#29017c"/>
        <path id="Path_278" data-name="Path 278" d="M132.662-188.166a3.349,3.349,0,0,1,.636.577,7.44,7.44,0,0,1-1.063.9l-1.076.819h15.828v1.49H131.159l1.076.819a6.62,6.62,0,0,1,1.063.913,4.508,4.508,0,0,1-1.283.968c-.073,0-1.137-.773-2.383-1.723l-2.261-1.722,2.322-1.77,2.322-1.77Z" transform="translate(-123.677 193.062)" fill="#29017c"/>
        <path id="Path_279" data-name="Path 279" d="M667.47-232.239a1.975,1.975,0,0,0-.745,1.277l-.056.314,2.812.035c2.7.035,2.84.046,3.2.29.522.348.736.674,2.179,3.391l1.257,2.369.047,4.134.047,4.134.633.035c.549.035.624.058.624.255,0,.221-.074.232-1.4.232h-1.4l.186.464a5.142,5.142,0,0,1,.261.894l.074.441h3.11l.3-.383c.3-.36.307-.406.335-1.486a5.654,5.654,0,0,0-.074-1.451,1.249,1.249,0,0,0-.885-.825l-.279-.035-.047-3.309c-.056-3.971.075-3.472-1.853-7.06-1.4-2.6-1.723-3.042-2.673-3.588l-.549-.325-2.375-.035C667.88-232.494,667.825-232.494,667.47-232.239Z" transform="translate(-635.14 233.976)" fill="#29017c"/>
        <path id="Path_280" data-name="Path 280" d="M677.364-144.218a1.273,1.273,0,0,0-.54.438c-.214.316-.214.372-.186,1.974l.028,1.657.307.3.3.307,2.682.028c2.552.019,2.682.009,2.98-.168a1.079,1.079,0,0,0,.494-1.211,12.22,12.22,0,0,0-1.108-1.723A5.773,5.773,0,0,0,681-144.171c-.27-.14-.577-.168-1.816-.158A9.453,9.453,0,0,0,677.364-144.218Zm3.092,1.527c.074.093.373.512.671.931l.531.773h-3.548v-1.862h1.1C680.148-142.849,680.334-142.821,680.456-142.691Z" transform="translate(-644.717 150.228)" fill="#29017c"/>
        <path id="Path_281" data-name="Path 281" d="M98.918,89.2a3.4,3.4,0,0,0-1.937,1.639,3.75,3.75,0,0,0,0,2.7,3.866,3.866,0,0,0,1.471,1.453,3.917,3.917,0,0,0,2.608,0,3.865,3.865,0,0,0,1.471-1.453,2.173,2.173,0,0,0,.251-1.35,2.459,2.459,0,0,0-.829-2.123,2.677,2.677,0,0,0-2.058-.912A3.9,3.9,0,0,0,98.918,89.2Zm1.527,1.537a1.819,1.819,0,0,1,.577.484,1.894,1.894,0,0,1,.019,1.918,1.635,1.635,0,0,1-2.263.307,1.613,1.613,0,0,1,.279-2.71A2.085,2.085,0,0,1,100.446,90.733Z" transform="translate(-93.517 -72.171)" fill="#29017c"/>
        <path id="Path_282" data-name="Path 282" d="M712.733,88.671a3.112,3.112,0,0,0-.363,5.727,3.321,3.321,0,0,0,2.393.1,3.364,3.364,0,0,0,1.723-1.564,3.6,3.6,0,0,0,0-2.645,3.379,3.379,0,0,0-1.7-1.555A3.491,3.491,0,0,0,712.733,88.671Zm1.779,1.573a1.721,1.721,0,0,1,.792,1.378,1.739,1.739,0,0,1-.8,1.36,1.781,1.781,0,0,1-1.518.074,1.666,1.666,0,0,1-.847-1.806A1.6,1.6,0,0,1,714.512,90.244Z" transform="translate(-677.442 -71.599)" fill="#29017c"/>
        <path id="Path_283" data-name="Path 283" d="M12.16,101.3c0,1.22.345,1.537,1.657,1.537h.745l.065-.354a3.96,3.96,0,0,1,.233-.745l.177-.391H13.65V100.6H12.16Z" transform="translate(-12.16 -83.83)" fill="#29017c"/>
        <path id="Path_284" data-name="Path 284" d="M265.954,120.378c.037.093.158.429.26.745l.2.587h15.673l.056-.326a4.916,4.916,0,0,1,.242-.745l.177-.419h-8.334C266.307,120.22,265.879,120.229,265.954,120.378Z" transform="translate(-253.169 -102.678)" fill="#29017c"/>
      </g>
      <path id="Path_278-2" data-name="Path 278" d="M141.577-188.172a3.313,3.313,0,0,0-.63.57,7.381,7.381,0,0,0,1.055.892l1.067.81h-15.7v1.472h15.7l-1.067.809a6.566,6.566,0,0,0-1.055.9,4.469,4.469,0,0,0,1.273.957c.073,0,1.127-.764,2.364-1.7l2.243-1.7-2.3-1.748-2.3-1.748Z" transform="translate(-121.154 193.347)" fill="#29017c"/>
    </g>
  </g>
</svg>
