<svg id="Group_37" data-name="Group 37" xmlns="http://www.w3.org/2000/svg" width="21.199" height="11.144" viewBox="0 0 21.199 11.144">
  <path id="Path_277" data-name="Path 277" d="M11.3-271.783a2.053,2.053,0,0,0-1.154,1.037c-.112.246-.118.321-.134,2.71-.011,1.352,0,2.539.016,2.641a1.2,1.2,0,0,0,.331.5l.3.31h12.6v-2.855c0-2.748-.005-2.865-.112-3.218a1.4,1.4,0,0,0-.444-.695c-.54-.54-.1-.5-6.04-.5C12.589-271.852,11.471-271.836,11.3-271.783Zm10.68.9a1.071,1.071,0,0,1,.3.358c.118.235.118.251.118,2.657v2.422H16.684a54.812,54.812,0,0,1-5.773-.075,17.441,17.441,0,0,1-.048-2.48l.016-2.405.16-.2a1.457,1.457,0,0,1,.347-.294c.176-.1.422-.1,5.3-.1h5.11Z" transform="translate(-10.003 271.854)" fill="#bebebe"/>
  <path id="Path_278" data-name="Path 278" d="M129.684-188.377a1.725,1.725,0,0,1,.278.331,3.726,3.726,0,0,1-.465.519l-.47.47h6.922v.855h-6.922l.47.47a3.33,3.33,0,0,1,.465.524,2.133,2.133,0,0,1-.561.556,13.8,13.8,0,0,1-1.042-.989l-.989-.989,1.016-1.016,1.016-1.016Z" transform="translate(-125.25 190.187)" fill="#bebebe"/>
  <path id="Path_279" data-name="Path 279" d="M667.13-232.369a.9.9,0,0,0-.428.588l-.032.144,1.614.016c1.55.016,1.63.021,1.839.134.3.16.422.31,1.251,1.561l.722,1.091.027,1.9.027,1.9.364.016c.315.016.358.027.358.118s-.043.107-.8.107h-.8l.107.214a2.024,2.024,0,0,1,.15.412l.043.2h1.786l.171-.176c.171-.166.176-.187.192-.684a2.1,2.1,0,0,0-.043-.668.679.679,0,0,0-.508-.38l-.16-.016-.027-1.523c-.032-1.828.043-1.6-1.064-3.25-.8-1.2-.989-1.4-1.534-1.652l-.315-.15-1.363-.016C667.365-232.487,667.333-232.487,667.13-232.369Z" transform="translate(-652.522 233.339)" fill="#bebebe"/>
  <path id="Path_280" data-name="Path 280" d="M677.049-144.266a.731.731,0,0,0-.31.251c-.123.182-.123.214-.107,1.133l.016.951.176.171.171.176,1.54.016c1.465.011,1.54.005,1.711-.1a.619.619,0,0,0,.283-.695,7.019,7.019,0,0,0-.636-.989,3.314,3.314,0,0,0-.759-.893c-.155-.08-.331-.1-1.042-.091A5.427,5.427,0,0,0,677.049-144.266Zm1.775.877c.043.053.214.294.385.535l.3.444h-2.037v-1.069h.631C678.647-143.48,678.754-143.464,678.824-143.39Z" transform="translate(-662.259 147.037)" fill="#bebebe"/>
  <path id="Path_281" data-name="Path 281" d="M97.986,89.173a1.953,1.953,0,0,0-1.112.941,2.153,2.153,0,0,0,0,1.55,2.219,2.219,0,0,0,.845.834,2.248,2.248,0,0,0,1.5,0,2.219,2.219,0,0,0,.845-.834,1.247,1.247,0,0,0,.144-.775,1.411,1.411,0,0,0-.476-1.219,1.537,1.537,0,0,0-1.181-.524A2.236,2.236,0,0,0,97.986,89.173Zm.877.882a1.044,1.044,0,0,1,.331.278,1.087,1.087,0,0,1,.011,1.1.939.939,0,0,1-1.3.176.926.926,0,0,1,.16-1.555A1.2,1.2,0,0,1,98.863,90.055Z" transform="translate(-94.839 -81.504)" fill="#bebebe"/>
  <path id="Path_282" data-name="Path 282" d="M711.843,88.618a1.786,1.786,0,0,0-.208,3.288,1.906,1.906,0,0,0,1.374.059,1.931,1.931,0,0,0,.989-.9,2.068,2.068,0,0,0,0-1.518,1.94,1.94,0,0,0-.978-.893A2,2,0,0,0,711.843,88.618Zm1.021.9a.988.988,0,0,1,.454.791,1,1,0,0,1-.46.78,1.022,1.022,0,0,1-.871.043A.957.957,0,0,1,711.5,90.1.919.919,0,0,1,712.864,89.521Z" transform="translate(-695.535 -80.922)" fill="#bebebe"/>
  <path id="Path_283" data-name="Path 283" d="M12.16,101c0,.7.2.882.951.882h.428l.038-.2a2.273,2.273,0,0,1,.134-.428l.1-.225h-.8V100.6H12.16Z" transform="translate(-12.113 -92.666)" fill="#bebebe"/>
  <path id="Path_284" data-name="Path 284" d="M265.951,120.311c.021.053.091.246.15.428l.112.337h9l.032-.187a2.823,2.823,0,0,1,.139-.428l.1-.241H270.7C266.154,120.22,265.908,120.225,265.951,120.311Z" transform="translate(-260.447 -111.86)" fill="#bebebe"/>
</svg>
