<svg id="Group_681" data-name="Group 681" xmlns="http://www.w3.org/2000/svg" width="34.199" height="34.203" viewBox="0 0 34.199 34.203">
  <path id="Path_1491" data-name="Path 1491" d="M470.937,1827.766a17.1,17.1,0,1,1-16.263-11.812,17.1,17.1,0,0,1,16.263,11.812m-16.263-10.275a15.561,15.561,0,1,0,14.8,10.758,15.56,15.56,0,0,0-14.8-10.758" transform="translate(-437.575 -1815.954)" fill="#29017c"/>
  <path id="Path_1492" data-name="Path 1492" d="M452.64,1823.971c.671-.027,1.354-.006,2.038-.006h.3V1820.4c-.36-.037-.761-.09-1.144-.114-.691-.04-1.394-.066-2.1-.047a5.177,5.177,0,0,0-2.979.917,4.507,4.507,0,0,0-1.795,2.986,11.546,11.546,0,0,0-.123,1.521c-.027.811,0,1.6,0,2.4v.3h-3.419v3.986h3.392v10h4.143v-9.984h3.4c.163-1.324.327-2.641.5-4.006h-3.926s.017-1.968.033-2.825c.033-1.174.734-1.538,1.678-1.565" transform="translate(-432.098 -1814.152)" fill="#29017c" fill-rule="evenodd"/>
</svg>
