<svg xmlns="http://www.w3.org/2000/svg" width="1153" height="4" viewBox="0 0 1153 4">
  <path id="Path_1573" data-name="Path 1573" d="M0,0H1149" transform="translate(2 2)" fill="none" stroke="#6e679e" stroke-linecap="round" stroke-width="4" stroke-dasharray="0 8"/>
</svg>
